{
    "label": "Guide du MJ",
    "entries": [
        {
            "id": "Survived a Disaster",
            "name": "Survivant d'un désastre",
            "description": "<p>Vous avez survécu à un grand désastre lors de votre enfance (comme un grand incendie, une inondation, un tremblement de terre, une éruption volcanique ou un ouragan) en improvisant avec les moyens du bord.</p>\n<p>Ajoutez le don de compétence <a class=\"entity-link\" draggable=\"true\" data-pack=\"pf2e.feats-srd\" data-id=\"ASy9AKEIRxPYUi5o\"><i class=\"fas fa-suitcase\"></i>Réparation rapide</a> à vos options d’historique.</p>"
        },
        {
            "id": "Academic Community",
            "name": "Communauté universitaire",
            "description": "<p>Vous avez grandi dans ou à proximité d'une université, une academie ou un autre centre d'apprentissage.</p>\n<p>Ajoutez Connaissance universitaire, Connaissance généalogique, Connaissance des bibliothèques et Connaissance du métier de scribe à vos options d'historique.</p>"
        },
        {
            "id": "Donjon",
            "name": "Donjon",
            "description": "<p>Vous êtes emprisonné par un rituel <a class=\"entity-link\" draggable=\"true\" data-pack=\"pf2e.spells-srd\" data-id=\"2CNqkt2s2IYkVnv6\"><i class=\"fas fa-suitcase\"></i>emprisonnement</a> de niveau 10. Cela utilise l'option prison et généralement vous vous retrouvez séquestré dans une région lointaine du monde. Vous perdez également tous vos objets. Vous ne piochez plus de carte.</p>"
        },
        {
            "id": "Coastal Community",
            "name": "Communauté côtière",
            "description": "<p> Vous avez grandi sur la rive d’un grand fleuve, dans une région très humide, au bord d’un océan ou sur une île.</p>\n<p>Ajoutez Connaissance de la pêche, Connaissance de la navigation maritime, et une Connaissance d’un type de créature marine particulière (comme Connaissance des requins) à vos options d’historique.</p>"
        },
        {
            "id": "Fool",
            "name": "Fou",
            "description": "<p>Vous perdez <a class=\"inline-roll roll\" title=\"1d10*100\" data-mode=\"roll\" data-flavor=\"\" data-formula=\"1d10*100\"><i class=\"fas fa-dice-d20\"></i> 1d10*100</a> PX à moins de piocher deux autres cartes.</p>"
        },
        {
            "id": "Called Before Judges",
            "name": "Convoqué devant les juges",
            "description": "Des informations fournies par ce personnage (intentionnellement ou non) vous ont mené à devoir vous défendre devant un groupe de bureaucrates ou de magistrats.</p>\n<p>Ajoutez le don de compétence <a class=\"entity-link\" draggable=\"true\" data-pack=\"pf2e.feats-srd\" data-id=\"KpFetnUqTiweypZk\"><i class=\"fas fa-suitcase\"></i>Bonne impression de groupe</a> à vos options d’historique.</p>"
        },
        {
            "id": "Cosmopolitan City",
            "name": "Cité cosmopolite",
            "description": "<p>Vous avez grandi dans une communauté sans ascendance prédominante. Cela peut avoir été a l'origine de tensions, mais cette diversité peut aussi avoir contribué à resserrer les liens existant entres les membres de cette communauté.</p>\n<p>Ajoutez Connaissance artistique, Connaissance des guildes, Connaissance juridiques et Connaissance de la pègre à vos options d'historique.</p>"
        },
        {
            "id": "Metropolis",
            "name": "Métropole",
            "description": "<p> Vous avez grandi dans l’une des plus grandes villes du monde, comme Absalom ou Couronne d’Ouest.</p>\n<p>Ajoutez Connaissance architecturale, Connaissance des gladiateurs, Connaissance des guildes, Connaissance juridique et Connaissance théâtrale à vos options d’historique.</p>"
        },
        {
            "id": "The Academic",
            "name": "Le professeur",
            "description": "<p>L’un de vos associés avait une telle soif de savoir qu’il ne pouvait jamais se satisfaire de réponses simples. À son contact, vous avez appris à apprécier les nombres, la géométrie, la logique, le travail assidu et la résolution de problèmes.</p>\n<p>Ajoutez une prime de caractéristique à l’Intelligence à vos options d’historique.</p>"
        },
        {
            "id": "Comrade-in-Arms",
            "name": "Fréres d'armes",
            "description": "<p>Ce Personnage et vous avez autrefois servi dans la même armée et vous vous étes entraînés ensemble pour améliorer votre condition physique.</p>\n<p>Ajoutez le don de compétence <a class=\"entity-link\" draggable=\"true\" data-pack=\"pf2e.feats-srd\" data-id=\"W6Gl9ePmItfDHji0\"><i class=\"fas fa-suitcase\"></i> Assurance</a> associé a l'Athlétisme à vos options d'historique.</p>"
        },
        {
            "id": "Animal Helpers",
            "name": "Amis des animaux",
            "description": "<p>Quand ce personnage et vous étiez jeunes, vous avez soigné ensemble des animaux malades</p>\n<p>Ajoutez le don de compétence <a class=\"entity-link\" draggable=\"true\" data-pack=\"pf2e.feats-srd\" data-id=\"nowEaHgIyij7im8F\"><i class=\"fas fa-suitcase\"></i>Dressage animalier</a> à vos options d'historique.</p>"
        },
        {
            "id": "Academy Trained",
            "name": "Formation universitaire",
            "description": "<p>Vous avez été admis dans une université où vous avez étudié de nombreux sujets et compétences. Vous étiez peut-étre un élève sérieux ou un tire-au-flanc. Dans tous les cas, cette université a été votre foyer pendant une bonne partie de votre jeunesse.</p>\n<p>Ajoutez le don de compétence <a class=\"entity-link\" draggable=\"true\" data-pack=\"pf2e.feats-srd\" data-id=\"BocFD2KV0qgUC76x\"><i class=\"fas fa-suitcase\"></i>Connaissance supplémentaire</a> à vos options d'historique. Si vous avez déja sélectionné Connaissance supplémentaire comme don de compétence, au lieu d'être qualifié en Connaissance, vous devenez qualifié, au choix, en Arcanes, Occultisme ou Société.</p>"
        },
        {
            "id": "Key",
            "name": "Clef",
            "description": "<p>Gagnez une arme magique de niveau 12 ou supérieur. Le MJ détermine l'objet et les runes qu'il possède si nécessaire.</p>"
        },
        {
            "id": "Dullard",
            "name": "Idiot",
            "description": "<p>Perdez immédiatement <a class=\"inline-roll roll\" title=\"Dullard Intelligence Decrease\" data-mode=\"roll\" data-flavor=\"Dullard Intelligence Decrease\" data-formula=\"1d4+1\"><i class=\"fas fa-dice-d20\"></i> 1d4+1</a> d'Intelligence. Vous pouvez alors piocher une carte supplémentaire et la carte de l'idiot disparaît à jamais.</p>"
        },
        {
            "id": "Frontier",
            "name": "Confins",
            "description": "<p>Vous avez grandi aux confins d'une région habitée. il peut s'agir de collines isolées si vous êtes un nain, d'un ranch ou d'une ferme si vous êtes un humain, ou d'un autre type de régions isolées.</p>\n<p>Ajoutez Connaissance agricole, Connaissance de la pêche, Connaissance de la chasse, Connaissance du métier d'éclaireur et une Connaissance associée à un type de créatures qui menace régulièrement votre patrie (comme Connaissance des géants) à vos options d'historique.</p>"
        },
        {
            "id": "Abandoned in a Distant Land",
            "name": "Abandonné dans un pays lointain",
            "description": "<p>Vous avez été victime de malchance (vous êtes parti vous promener et vous vous êtes perdu lors d’un voyage ou avez été recruté de force sur un navire) et vous avez dû survivre pendant quelque temps dans un pays lointain. Ajoutez le don de compétence <a class=\"entity-link\" draggable=\"true\" data-pack=\"pf2e.feats-srd\" data-id=\"P9HCz0uR6xPHuw72\"><i class=\"fas fa-suitcase\"></i> Polyglotte</a> à vos options d’historique.</p>"
        },
        {
            "id": "The Fiend",
            "name": "Le fiélon",
            "description": "<p>Vous avez eu affaire à un fiélon ou avez été possédé par un fiélon, qui vous a accordé du pouvoir quand vous en aviez besoin. Une part de lui se trouve encore en vous et stimule vos pulsions destructrices.</p>\n<p>Ajoutez une prime de caractéristique à la Force à vos options d’historique.</p>"
        },
        {
            "id": "Died",
            "name": "Mort",
            "description": "<p>Vous êtes mort, ou vous êtes passé à deux doigts de trépasser et vous vous êtes trouvé à la frontière entre la vie et la mort.</p>\n<p>Ajoutez le don <a class=\"entity-link\" draggable=\"true\" data-pack=\"pf2e.feats-srd\" data-id=\"I0BhPWqYf1bbzEYg\"><i class=\"fas fa-suitcase\"></i>Dur à cuire</a> à vos options d'historique. Si vous sélectionnez ce don au lieu d'un don de compétence, vous n'êtes pas qualifié dans une compétence d'historique.</p>"
        },
        {
            "id": "Attained a Magical Gift",
            "name": "Dépositaire d'un talent magique",
            "description": "<p>Quand vous étiez enfant, vous avez trouvé, volé ou reçu comme cadeau un objet magique vous conférant un pouvoir extraordinaire.</p>\n<p>Ajoutez le don de compétence <a class=\"entity-link\" draggable=\"true\" data-pack=\"pf2e.feats-srd\" data-id=\"blMeVamjGz4ODWxq\"><i class=\"fas fa-suitcase\"></i>Sens arcanique</a> à vos options d'historique.</p>"
        },
        {
            "id": "Jester",
            "name": "Bouffon",
            "description": "<p>Soit vous piochez deux autres cartes, soit vous gagnez <a class=\"inline-roll roll\" title=\"1d10*100\" data-mode=\"roll\" data-flavor=\"\" data-formula=\"1d10*100\"><i class=\"fas fa-dice-d20\"></i> 1d10*100</a> PX. Puis cette carte disparaît à jamais.</p>"
        },
        {
            "id": "Trained by a Mentor",
            "name": "Formé par un Mentor",
            "description": "<p> Vous avez été remarqué par un mentor ou un mécène, qui a proposé de prendre votre éducation en main ou de vous parrainer.</p>\n<p>Ajoutez le don de compétence <a class=\"entity-link\" draggable=\"true\" data-pack=\"pf2e.feats-srd\" data-id=\"sMm0UfYxEPpq2Yzd\"><i class=\"fas fa-suitcase\"></i>Professionnel expérimenté</p> à vos options d’historique.</p>"
        },
        {
            "id": "The Mentor",
            "name": "Le mentor",
            "description": "<p> Un mentor vous a appris tout ce qu’il faut savoir sur la vie. Il s’agit peut-être de la personne qui a contribué à faire de vous un héros, ou simplement d’un proche qui vous a aidé à façonner votre vision du monde.</p>\n<p>Ajoutez une prime de caractéristique à la Constitution à vos options d’historique.<p>"
        },
        {
            "id": "Captured by Giants",
            "name": "Capturé par des géants",
            "description": "<p>Vous avez été capturé par des géants en maraude et vous avez été forcé de vous battre pour leurs échapper.</p>\n<p>Ajoutez le don de compétence Lutte contre les titans a vos options d'historique.</p>"
        },
        {
            "id": "Skull",
            "name": "Crâne",
            "description": "<p>Vous devez immédiatement combattre une <a class=\"entity-link\" draggable=\"true\" data-pack=\"pf2e.pathfinder-bestiary\" data-id=\"pkNWilK2pHZ5TDsd\"><i class=\"fas fa-user\"></i>mort inférieure</a>. Si vous êtes tué au cours du combat, vous ne pouvez jamais être ramené à la vie sauf par une divinité.</p>"
        },
        {
            "id": "Ruin",
            "name": "Ruine",
            "description": "<p>Vous perdez toutes vos possessions non magiques y compris vos objets de valeur et vos propriétés.</p>"
        },
        {
            "id": "Homelessness",
            "name": "Vagabondage",
            "description": "<p>Vous avez tous les deux vécu dans la rue et vous avez appris à ce personnage de précieuses astuces pour survivre.</p>\n<p>Ajoutez le don de compétence <a class=\"entity-link\" draggable=\"true\" data-pack=\"pf2e.feats-srd\" data-id=\"X2jGFfLU5qI5XVot\"><i class=\"fas fa-suitcase\"></i> Savoir urbain</a> à vos options d'historique.</p>"
        },
        {
            "id": "Itinerant",
            "name": "Itinérant",
            "description": "<p>Vous n'avez jamais eu de foyer à proprement parler. Vous avez peut-être grandi dans une caravane nomade, avec un groupe de bateleurs itinérants, ou une bande de contrebandiers</p>\n<p>Ajoutez Connaissance du cirque, Connaissance de la voyance, Connaissance ludique, Connaissance du travail et Connaissance de la Pègre à vos options d'historique.</p>"
        },
        {
            "id": "Rogue",
            "name": "Traître",
            "description": "<p> Un allié PNJ ressent soudain une profonde haine contre vous et devient à jamais votre ennemi. Le PNJ peut garder cette haine secrète jusqu’au moment opportun.</p>"
        },
        {
            "id": "Another Ancestry's Settlement",
            "name": "Une communauté d'une autre ascendance",
            "description": "<p> Déterminez\naléatoirement une autre ascendance courante : vous avez grandi au milieu de membres de celle-ci. Relancez un dé dans ce tableau (avec un modificateur adapté à cette nouvelle ascendance le cas échéant) afin de déterminer le type de communauté dans laquelle vous avez grandi (par exemple si votre gnome a grandi avec des nains et obtient 3 à son jet de dé, il a alors grandi sous terre).</p>\n<p>Ajoutez le don <a class=\"entity-link\" draggable=\"true\" data-pack=\"pf2e.feats-srd\" data-id=\"ihN8gkHSdPG9Trte\"><i class=\"fas fa-suitcase\"></i>Ascendance adoptive</a> et la compétence de Connaissance associée à votre ascendance d’adoption (comme Connaissance des nains) à vos options d’historique. Si vous sélectionnez ce don au lieu d’un don de compétence, vous n’êtes pas entraîné dans une compétence d’historique.</p>"
        },
        {
            "id": "Underground",
            "name": "Sous terre",
            "description": "<p>Vous avez grandi dans une région partiellement ou entièrement souterraine, comme une ville minière humaine, un terrier de gobelins ou une caverne naine.</p>\n<p>Ajoutez Connaissance de l’ingénierie, Connaissance du travail et Connaissance minière à vos options d’historique</p>"
        },
        {
            "id": "Euryale (curse)",
            "name": "Euryale (malédiction)",
            "description": "<p>L’image d’une méduse vous maudit avec un malus de statut permanent de −1 à tous vos jets de sauvegarde. Cette malédiction ne peut être levée que par une divinité ou la carte Les Parques.</p>\n<p><a class=\"entity-link\" draggable=\"true\" data-pack=\"pf2e.spell-effects\" data-id=\"8ersuvNJXX00XaIQ\"><i class=\"fas fa-suitcase\"></i> Effet: carte Euryale (malédiction)</a></p>"
        },
        {
            "id": "The Well-Connected",
            "name": "L'ami aux nombreuses relations",
            "description": "<p>Dans votre cercle de proches se trouvait quelqu’un que tout le monde connaissait. Cette personne avait des contacts dans toutes les strates sociales. Grâce à elle, vous continuez de rencontrer de nombreuses personnes de toutes origines.</p>\n<p>Ajoutez une prime de caractéristique au Charisme à vos options d’historique.</p>"
        },
        {
            "id": "Missing Child",
            "name": "Enfant perdu",
            "description": "<p>. Quand un enfant de votre famille a disparu dans un marché bondé, ce personnage vous a aidé à interroger les marchands et les clients et à retrouver l’enfant avant qu’il ne lui arrive malheur.</p>\n<p>Ajoutez le don de compétence <a class=\"entity-link\" draggable=\"true\" data-pack=\"pf2e.feats-srd\" data-id=\"4RjDxgvNXNl5GG9d\"><i class=\"fas fa-suitcase\"></i>Animal social</a> à vos options d’historique.</p>"
        },
        {
            "id": "Social Maneuvering",
            "name": "Manipulations sociales",
            "description": "<p>Vous avez toujours voulu prouver que vous étiez meilleur que ce personnage bénéficiant d’une bonne situation sociale. Jusqu’ici, vous n’avez pas obtenu de résultat décisif.</p>\n<p>Ajoutez le don de compétence <a class=\"entity-link\" draggable=\"true\" data-pack=\"pf2e.feats-srd\" data-id=\"JtjnFsOToBLnSRO9\"><i class=\"fas fa-suitcase\"></i>Manières courtoises</a> à vos options d’historique.</p>"
        },
        {
            "id": "Flames",
            "name": "Flammes",
            "description": "<p>Par colère, envie, jalousie ou pour une autre raison, vous suscitez l’hostilité d’un fiélon. Seule sa mort ou la vôtre peuvent mettre un terme à cette haine. Il vous attaque ou tente de vous contrer dans un délai de <a class=\"inline-roll roll\" title=\"1d20\" data-mode=\"roll\" data-flavor=\"\" data-formula=\"1d20\"><i class=\"fas fa-dice-d20\"></i> 1d20</a> jours. Le MJ détermine les détails concernant ce fiélon.</p>"
        },
        {
            "id": "Talons",
            "name": "Serres",
            "description": "<p>Tous vos objets magiques disparaissent de manière permanente à l’exception des cartes merveilleuses et tout artefact d’un niveau supérieur aux cartes.</p>"
        },
        {
            "id": "The Boss",
            "name": "Le patron",
            "description": "<p>Vous avez été un temps au service d’un individu puissant et très influent. Quand le patron parlait, tout le monde l’écoutait. Il peut s’agir d’un commandant militaire, d’un chef de village, du responsable d’une guilde ou d’un chef de gang. Au contact de ce patron, vous avez appris à faire en sorte que les gens vous écoutent et restent dans le rang.</p>\n<p>Ajoutez une prime de caractéristique au Charisme à vos options d’historique.</p>"
        },
        {
            "id": "Raided",
            "name": "Pillage",
            "description": "<p> Une horde de pillards a attaqué votre communauté, tuant et blessant plusieurs de vos proches. Il peut s’agir d’une bande de voleurs de grand chemin ou d’une armée d’envahisseurs. Vous avez conservé une relique de cette époque : ajoutez une armure ou un bouclier valant 15 po ou moins à vos options d’historique.</p>\n<p>Si vous choisissez cette option à la place d’un don de compétence, vous devenez qualifié en Médecine.</p>"
        },
        {
            "id": "Bullied",
            "name": "Persécuté",
            "description": "<p>Vous avez souvent été maltraité au cours de votre jeunesse. Les mauvais traitements que vous ont fait subir ces brutes n’ont fait qu’affermir votre volonté de vous défendre et de voler au secours des autres.</p>\n<p>Ajoutez le don de compétence Regard intimidant à vos options d’historique.</p>"
        },
        {
            "id": "The Relative",
            "name": "Le parent",
            "description": "<p> Vous étiez particulièrement proche d’un membre de votre famille dans votre enfance. À vos yeux, cette personne incarnait votre famille. Elle vous a aidé à passer à l’âge adulte et vous a appris tout ce qu’elle savait sur le monde. Vous vous efforcez de tenir une promesse ou d’être fidèle à un vœu ou à un serment que vous lui avez fait.</p>\n<p>Ajoutez une prime de caractéristique à la Constitution à vos options d’historique.</p>"
        },
        {
            "id": "Fell In with a Bad Crowd",
            "name": "Mauvaises fréquentations",
            "description": "<p> Dans votre jeunesse, vous avez côtoyé des criminels : un gang, une guilde de voleurs ou une organisation comparable.</p>\n<p>Ajoutez le don de compétence <a class=\"entity-link\" draggable=\"true\" data-pack=\"pf2e.feats-srd\" data-id=\"t3btih0O5RUwWynt\"><i class=\"fas fa-suitcase\"></i>Contrebandier expérimenté</a> à vos options d’historique.</p>"
        },
        {
            "id": "Seeking Accolades",
            "name": "Chercheur d'attention",
            "description": "<p> Vous n’avez jamais su attirer l’attention des foules aussi facilement que ce personnage et vous avez donc dû travailler dur pour développer votre sens du spectacle.</p>\n<p>Ajoutez le don de compétence <a class=\"entity-link\" draggable=\"true\" data-pack=\"pf2e.feats-srd\" data-id=\"xqAdXRd2gSQcqp5E\"><i class=\"fas fa-suitcase\"></i>Représentation impressionnante</a> à vos options d’historique.</p>"
        },
        {
            "id": "Gem",
            "name": "Gemme",
            "description": "<p>Gagnez 25 joyaux de votre choix d’une valeur de 200 po chacun ou 50 gemmes valant chacune 100 po.</p>"
        },
        {
            "id": "Betrayed",
            "name": "Trahi",
            "description": "<p>Un ami ou un membre de votre famille en qui vous aviez une confiance absolue vous a trahi.</p>\n<p>Ajoutez le don de compétence <a class=\"entity-link\" draggable=\"true\" data-pack=\"pf2e.feats-srd\" data-id=\"Dvz54d6aPhjsmUux\"><i class=\"fas fa-suitcase\"></i>Détecteur de mensonges</a> à vos options d'historique.</p>"
        },
        {
            "id": "Desperate Intimidation",
            "name": "Intimidation désespérée",
            "description": "<p>Ce personnage et vous avez mis en déroute des pirates ou des esclavagistes qui cherchaient à vous capturer.</p>\n<p>Ajoutez le don de compétence <a class=\"entity-link\" draggable=\"true\" data-pack=\"pf2e.feats-srd\" data-id=\"gUqvezs2zzoTXFAI\"><i class=\"fas fa-suitcase\"></i> Contraindre un groupe</a> à vos options d'historique.</p>"
        },
        {
            "id": "Had Your First Kill",
            "name": "Premier meurtre",
            "description": "<p>Vos mains ont été tachées de sang dans votre jeunesse, quand vous avez dû prendre une vie pour la première fois. Vous possédez encore l’arme que vous avez utilisée à l’époque : ajoutez une arme ordinaire d’une valeur de 15 po ou moins à vos options d’historique.</p>\n<p>Si vous choisissez cette option à la place d’un don de compétence, vous devenez qualifié en Athlétisme.</p>"
        },
        {
            "id": "Patron of the Arts",
            "name": "Bienfaiteur des arts",
            "description": "<p> Ce personnage vous a encouragé à exceller dans votre domaine de prédilection, allant jusqu’à vous donner de quoi vivre lors des périodes difficiles.</p>\n<p>Ajoutez le don de compétence <a class=\"entity-link\" draggable=\"true\" data-pack=\"pf2e.feats-srd\" data-id=\"lFwfUvH2708rl6i3\"><i class=\"fas fa-suitcase\"></i>Artiste virtuose</a> à vos options d’historique.</p>"
        },
        {
            "id": "The Pariah",
            "name": "Le paria",
            "description": "<p>Vous avez rencontré un exilé en disgrâce et ses mots vous ont touché. Ce qui vous semblait un temps juste, dans votre religion, société ou famille, s’est soudain mis à sonner faux et vous avez rapidement appris que vous ne deviez pas accorder votre confiance à n’importe qui.</p>\n<p>Ajoutez une prime de caractéristique à la Sagesse à vos options d’historique.</p>"
        },
        {
            "id": "Accidental Fall",
            "name": "Chute accidentelle",
            "description": "<p>Ce personnage vous a poussé par inadvertance d'une corniche ou d'un balcon. Vous êtes presque sûr qu'il s'agit d'un accident, mais la chute vous a terrifié et vous vous êtes juré de ne jamais plus vous faire surprendre ainsi.</p>\n<p>Ajoutez le don de compétence  <a class=\"entity-link\" draggable=\"true\" data-pack=\"pf2e.feats-srd\" data-id=\"LQw0yIMDUJJkq1nD\"><i class=\"fas fa-suitcase\"></i>Chute féline</a> à vos options d'historique.</p>"
        },
        {
            "id": "Comet",
            "name": "Comète",
            "description": "<p>Si vous vainquez seul la prochaine menace faible ou le ou les ennemis hostiles plus coriaces que vous rencontrez , vous gagnez assez de PX pour atteindre le niveau suivant. Sinon, cette carte ne vous apporte rien.</p>"
        },
        {
            "id": "Won a Competition",
            "name": "Vainqueur d'une compétition",
            "description": "<p>. Vous vous êtes fait remarquer en gagnant une compétition au cours de votre jeunesse. Il peut s’agir d’une compétition martiale, d’une démonstration par des apprentis magiciens, d’un tournoi de jeu de hasard, ou de quelque chose de plus commun, comme un concours du plus gros mangeur.</p>\n<p>Ajoutez le don de compétence <a class=\"entity-link\" draggable=\"true\" data-pack=\"pf2e.feats-srd\" data-id=\"7LB00jkh6JaJr3vS\"><i class=\"fas fa-suitcase\"></i>Représentation fascinante</a> à vos options d’historique.</p>"
        },
        {
            "id": "Accusation of Theft",
            "name": "Accusation de vol",
            "description": "<p>Vous avez été un jour convaincu que ce personnage vous avait volé un objet de grande valeur sentimentale. Vous étiez déterminé à le lui voler à votre tour, puis vous vous êtes rendu compte qu’il n’était pas responsable et que vous aviez seulement égaré l’objet.</p>\n<p>Ajoutez le don de compétence <a class=\"entity-link\" draggable=\"true\" data-pack=\"pf2e.feats-srd\" data-id=\"jDdOqFmZLwE4dblQ\"><i class=\"fas fa-suitcase\"></i>Vol à la tire</a> à vos options d’historique.</p>"
        },
        {
            "id": "Had an Ordinary Childhood",
            "name": "Enfance ordinaire",
            "description": "<p>Votre enfance a été très ordinaire et vous n’avez été marqué par aucune catastrophe particulière, une situation très rare chez les aventuriers.</p>\n<p>Ajoutez le don de compétence <a class=\"entity-link\" draggable=\"true\" data-pack=\"pf2e.feats-srd\" data-id=\"W6Gl9ePmItfDHji0\"><i class=\"fas fa-suitcase\"></i> Assurance</a> dans une compétence de votre choix à vos options d’historique.</p>"
        },
        {
            "id": "Spy",
            "name": "Espion",
            "description": "<p>Par le passé, vous avez espionné ce personnage, soit pour le compte de quelqu’un d’autre, soit pour confirmer vos propres soupçons à son sujet.</p>\n<p>Ajoutez le don de compétence <a class=\"entity-link\" draggable=\"true\" data-pack=\"pf2e.feats-srd\" data-id=\"yUuU9xyotrpwpTyC\"><i class=\"fas fa-suitcase\"></i>Lire sur les lèvres</a> à vos options d’historique.</p>"
        },
        {
            "id": "Magician",
            "name": "Magicien",
            "description": "<p>Ce personnage vous a soutenu lors de votre brève incursion dans le monde de la prestidigitation, qui était pour vous une première étape avant d’apprendre la magie véritable, ou simplement un moyen de développer l’agilité de vos doigts.</p>\n<p>Ajoutez le don de compétence <a class=\"entity-link\" draggable=\"true\" data-pack=\"pf2e.feats-srd\" data-id=\"hVZbnsDuXihggylt\"><i class=\"fas fa-suitcase\"></i>Vol subtil</a> à vos options d’historique.</a>"
        },
        {
            "id": "Front Lines",
            "name": "Ligne de Front",
            "description": "<p>Vous avez grandi dans une région déchirée par la guerre. Même si vous n’avez pas pris part aux combats personnellement, ceux-ci n’étaient jamais loin.</p>\n<p>Ajoutez Connaissance de l’héraldique, Connaissance du métier d’éclaireur et Connaissance de la guerre à vos options d’historique.</p>"
        },
        {
            "id": "Relationship Ender",
            "name": "Briseur de relations",
            "description": "<p> Vous avez un jour découragé quelqu’un qui cherchait l’affection de ce personnage. Vous restez convaincu que vous lui avez rendu service, car ils n’étaient pas du tout assortis.</p>\n<p>Ajoutez le don de compétence <a class=\"entity-link\" draggable=\"true\" data-pack=\"pf2e.feats-srd\" data-id=\"ar2DUlvDK4LDcH9J\"><i class=\"fas fa-suitcase\"></i>Contrainte rapide</a> à vos options d’historique."
        },
        {
            "id": "Rival Trackers",
            "name": "Pisteurs rivaux",
            "description": "<p>Ce personnage et vous avez un temps été rivaux dans la traque d’animaux ou de criminels en fuite.</p>\n<p>Ajoutez le don de compétence <a class=\"entity-link\" draggable=\"true\" data-pack=\"pf2e.feats-srd\" data-id=\"urQZwmzg2kS53vd5\"><i class=\"fas fa-suitcase\"></i>Pisteur expérimenté</a> à vos options d’historique.</p>"
        },
        {
            "id": "Balance",
            "name": "Balance",
            "description": "<p>Votre alignement est changé en un alignement radicalement différent. Si vous ne respectez pas cet alignement, vous perdez un niveau et tous les avantages octroyés par ce niveau. Votre total de PX ne change pas quand vous perdez un niveau de cette manière.</p>"
        },
        {
            "id": "Religious Students",
            "name": "Séminaristes",
            "description": "<p>Ce personnage et vous avez tous les deux suivi une formation religieuse. Même si vous n’avez pas continué dans cette voie, vous admirez sa piété.</p>\n<p>Ajoutez le don de compétence <a class=\"entity-link\" draggable=\"true\" data-pack=\"pf2e.feats-srd\" data-id=\"x7EMZNMavris2aHY\"><i class=\"fas fa-suitcase\"></i>Étudiant du droit canon</a> à vos options d’historique.</p>"
        },
        {
            "id": "Throne",
            "name": "Trône",
            "description": "<p>Vous gagnez un bonus de statut de +4 permanent à vos tests de Diplomatie et vous possédez désormais un petit château dans la région dégagée de votre choix. Vous devez choisir sa localisation dans un délai d’une heure.</p>\n<p><a class=\"entity-link\" draggable=\"true\" data-pack=\"pf2e.spell-effects\" data-id=\"Zb8RYgmzCI6fQE0o\"><i class=\"fas fa-suitcase\"></i> Effet: Carte Trône</a></p>"
        },
        {
            "id": "Met a Fantastic Creature",
            "name": "Rencontre avec une créature fantastique",
            "description": "<p> Votre enfance a été marquée par une rencontre avec une créature magique, comme un dragon, une licorne, un génie, une pixie, ou une autre créature de ce type.</p>\n<p>Ajoutez le don de compétence <a class=\"entity-link\" draggable=\"true\" data-pack=\"pf2e.feats-srd\" data-id=\"MjQyTcV8Jiv1Jtln\"><i class=\"fas fa-suitcase\"></i>Reconnaître des sorts</a> à vos options d’historique.</p>"
        },
        {
            "id": "Claimed an Inheritance",
            "name": "Bénéficiaire d'un héritage",
            "description": "<p>Vous avez reçu une grande richesse ou propriété à un jeune âge. Vous avez réussi à en conserver une partie. Ajoutez un article de matériel d'aventurier courant d'une valeur de 15 po ou moins à vos options d'historique. Si vous choisissez cet article à la place d'un don de compétence, vous devenez qualifié en Societé.</p>"
        }
    ],
    "mapping": {}
}